<?xml version="1.0" encoding="UTF-8" standalone="no"?>
<!-- Created with Inkscape (http://www.inkscape.org/) -->

<svg
   width="48"
   height="48"
   viewBox="0 0 12.7 12.7"
   version="1.1"
   id="svg5"
   inkscape:version="1.1.2 (0a00cf5339, 2022-02-04, custom)"
   sodipodi:docname="marker.svg"
   xmlns:inkscape="http://www.inkscape.org/namespaces/inkscape"
   xmlns:sodipodi="http://sodipodi.sourceforge.net/DTD/sodipodi-0.dtd"
   xmlns="http://www.w3.org/2000/svg"
   xmlns:svg="http://www.w3.org/2000/svg">
  <sodipodi:namedview
     id="namedview7"
     pagecolor="#ffffff"
     bordercolor="#666666"
     borderopacity="1.0"
     inkscape:pageshadow="2"
     inkscape:pageopacity="0.0"
     inkscape:pagecheckerboard="0"
     inkscape:document-units="px"
     showgrid="false"
     units="px"
     width="32px"
     inkscape:zoom="10.248373"
     inkscape:cx="19.710447"
     inkscape:cy="21.320458"
     inkscape:window-width="1920"
     inkscape:window-height="1009"
     inkscape:window-x="1920"
     inkscape:window-y="573"
     inkscape:window-maximized="1"
     inkscape:current-layer="layer1" />
  <defs
     id="defs2" />
  <g
     inkscape:label="Calque 1"
     inkscape:groupmode="layer"
     id="layer1">
    <path
       style="fill:#bf360c;fill-opacity:1;stroke:#ffffff;stroke-width:0.661458;stroke-miterlimit:4;stroke-dasharray:none;stroke-opacity:1"
       id="path6342"
       sodipodi:type="arc"
       sodipodi:cx="-8.9855032"
       sodipodi:cy="-0.0052228207"
       sodipodi:rx="5.9781651"
       sodipodi:ry="5.9781651"
       sodipodi:start="0"
       sodipodi:end="1.5707963"
       sodipodi:arc-type="slice"
       d="M -3.007338,-0.00522282 A 5.9781651,5.9781651 0 0 1 -8.9855032,5.9729423 v -5.97816512 z"
       transform="matrix(-0.70710482,-0.70710874,0.70710482,-0.70710874,0,0)" />
    <circle
       style="fill:#ff6f00;fill-opacity:1;stroke:#ffffff;stroke-width:0.660027;stroke-miterlimit:4;stroke-dasharray:none;stroke-opacity:1"
       id="path846"
       cx="6.3499999"
       cy="6.5445719"
       r="2.6401064" />
  </g>
</svg>
